<?xml version="1.0" encoding="UTF-8"?>
<!DOCTYPE svg PUBLIC "-//W3C//DTD SVG 1.1//EN" "http://www.w3.org/Graphics/SVG/1.1/DTD/svg11.dtd">
<svg version="1.1" xmlns="http://www.w3.org/2000/svg" xmlns:xlink="http://www.w3.org/1999/xlink" x="0" y="0" width="708.661" height="850.394" viewBox="0, 0, 708.661, 850.394">
  <g id="Layer_1">
    <path d="M105.831,251.5 C105.652,286.593 117.705,323.304 126.831,357 C141.513,411.21 161.18,463.591 176.831,517.5 C182.245,536.149 185.631,555.201 190.331,574 C190.741,575.642 192.247,586.369 194.831,586 C200.705,585.161 202.838,558.764 204.331,554.5 C207.717,544.824 212.913,535.968 216.831,526.5 C230.894,492.513 244.058,457.852 257.331,423.5 C264.516,404.903 270.374,385.856 281.331,369 C285.535,362.532 296.409,349.016 290.831,353 C272.94,365.779 283.976,393.454 288.331,410 C299.712,453.248 317.677,494.036 332.831,536 C338.138,550.697 343.697,565.241 348.831,580 C351.68,588.192 354.246,596.642 354.331,596.5 C356.722,592.515 354.886,586.41 355.831,582 C357.667,573.43 362.57,565.802 364.331,557 C368.01,538.603 368.501,519.885 372.331,501.5 C377.009,479.046 384.709,457.655 390.331,435.5 C399.784,398.244 407.2,360.647 417.331,323.5 C424.961,295.521 435.286,270.714 447.331,244.5 C453.385,231.323 458.499,217.755 464.331,204.5 C466.582,199.383 472.263,190.843 472.331,191 C475.244,197.798 467.564,207.534 464.831,213" fill-opacity="0" stroke="#000000" stroke-width="10" stroke-linecap="round" stroke-linejoin="round"/>
    <path d="M503.414,467.565 C485.153,476.021 442.102,544.102 432.479,562.146 C426.251,573.823 421.816,585.75 417.224,597.995 C399.479,645.315 376.282,749.18 413.41,792.496 C417.77,797.582 424.241,800.666 429.428,804.7 C465.628,832.856 505.591,828.121 547.654,816.904 C559.334,813.789 572.95,812.381 583.503,806.226 C600.408,796.364 616.439,780.099 627.742,764.274 C636.673,751.771 640.087,737.196 645.286,723.086 C658.955,685.982 660.304,645.19 652.913,606.385 C648.142,581.338 643.311,552.245 630.031,530.111 C622.577,517.688 613.683,506.568 607.148,493.499 C590.598,460.398 557.487,432.237 520.957,457.649 C508.113,466.585 492.158,499.522 475.193,492.736" fill-opacity="0" stroke="#000000" stroke-width="10" stroke-linecap="round" stroke-linejoin="round"/>
  </g>
</svg>
